…
@timbers_data_2022 verwenden in Kap. 5 auch noch nicht standardisierte Daten, `unscales_wdbc.csv`, die [hier](https://raw.githubusercontent.com/UBC-DSCI/introduction-to-datascience/master/data/unscaled_wdbc.csv) als CSV-Datei heruntergeladen werden können.



```r
cancer_unscales_path <- "https://raw.githubusercontent.com/UBC-DSCI/introduction-to-datascience/master/data/unscaled_wdbc.csv"

unscaled_cancer <- read_csv(cancer_unscales_path) |>
  mutate(Class = as_factor(Class)) |>
  select(Class, Area, Smoothness)
unscaled_cancer
```

```
## # A tibble: 569 × 3
##    Class  Area Smoothness
##    <fct> <dbl>      <dbl>
##  1 M     1001      0.118 
##  2 M     1326      0.0847
##  3 M     1203      0.110 
##  4 M      386.     0.142 
##  5 M     1297      0.100 
##  6 M      477.     0.128 
##  7 M     1040      0.0946
##  8 M      578.     0.119 
##  9 M      520.     0.127 
## 10 M      476.     0.119 
## # … with 559 more rows
```
…
