Kapitel 10 Ensemble Lerner | DataScience1
…
Schauen wir uns das Objekt etwas näher an:

tree_fit$.metrics[[1]]

## # A tibble: 30 × 7
##    cost_complexity tree_depth min_n .metric .estimator .estimate .config        
##              <dbl>      <int> <int> <chr>   <chr>          <dbl> <chr>          
##  1        4.47e- 9         14    18 sens    binary         0.848 Preprocessor1_…
##  2        4.47e- 9         14    18 spec    binary         0.857 Preprocessor1_…
##  3        4.47e- 9         14    18 roc_auc binary         0.917 Preprocessor1_…
##  4        3.04e- 3          2    32 sens    binary         0.774 Preprocessor1_…
##  5        3.04e- 3          2    32 spec    binary         0.843 Preprocessor1_…
##  6        3.04e- 3          2    32 roc_auc binary         0.822 Preprocessor1_…
##  7        1.12e-10          5    36 sens    binary         0.819 Preprocessor1_…
##  8        1.12e-10          5    36 spec    binary         0.857 Preprocessor1_…
##  9        1.12e-10          5    36 roc_auc binary         0.903 Preprocessor1_…
## 10        9.36e- 9          4    39 sens    binary         0.856 Preprocessor1_…
## # … with 20 more rows
…
Entsprechend kann man das Modellobjekt wieder importieren, wenn einmal abgespeichert:

churn_model_set <- read_rds(file = "objects/churn_model_set.rds")

10.10.8 Ergebnisse im Train-Sest

Hier ist die Rangfolge der Modelle, geordnet nach mittlerem ROC AUC:

rank_results(churn_model_set, rank_metric = "roc_auc")

## # A tibble: 122 × 9
##    wflow_id    .config      .metric  mean std_err     n preprocessor model  rank
##    <chr>       <chr>        <chr>   <dbl>   <dbl> <int> <chr>        <chr> <int>
##  1 rec2_boost1 Preprocesso… roc_auc 0.963 0.00104     5 recipe       boos…     1
##  2 rec1_boost1 Preprocesso… roc_auc 0.963 0.00104     5 recipe       boos…     2
##  3 rec2_boost1 Preprocesso… roc_auc 0.961 0.00106     5 recipe       boos…     3
##  4 rec1_boost1 Preprocesso… roc_auc 0.961 0.00106     5 recipe       boos…     4
##  5 rec2_glm1   Preprocesso… roc_auc 0.961 0.00272     5 recipe       logi…     5
##  6 rec1_boost1 Preprocesso… roc_auc 0.961 0.00102     5 recipe       boos…     6
##  7 rec2_boost1 Preprocesso… roc_auc 0.961 0.00102     5 recipe       boos…     7
##  8 rec2_boost1 Preprocesso… roc_auc 0.960 0.00120     5 recipe       boos…     8
##  9 rec1_boost1 Preprocesso… roc_auc 0.960 0.00120     5 recipe       boos…     9
## 10 rec1_rf1    Preprocesso… roc_auc 0.960 0.00278     5 recipe       rand…    10
## # … with 112 more rows
…
## # A tibble: 1 × 4
##    mtry trees min_n .config              
##   <int> <int> <int> <chr>                
## 1     6  1686    18 Preprocessor1_Model03

Aber wir können uns händisch behelfen.

Schauen wir uns mal die Metriken (Vorhersagegüte) an:

churn_model_set %>% 
  collect_metrics() %>% 
  arrange(-mean)

## # A tibble: 122 × 9
##    wflow_id    .config      preproc model .metric .estimator  mean     n std_err
##    <chr>       <chr>        <chr>   <chr> <chr>   <chr>      <dbl> <int>   <dbl>
##  1 rec1_boost1 Preprocesso… recipe  boos… roc_auc binary     0.963     5 0.00104
##  2 rec2_boost1 Preprocesso… recipe  boos… roc_auc binary     0.963     5 0.00104
##  3 rec1_boost1 Preprocesso… recipe  boos… roc_auc binary     0.961     5 0.00106
##  4 rec2_boost1 Preprocesso… recipe  boos… roc_auc binary     0.961     5 0.00106
##  5 rec2_glm1   Preprocesso… recipe  logi… roc_auc binary     0.961     5 0.00272
##  6 rec1_boost1 Preprocesso… recipe  boos… roc_auc binary     0.961     5 0.00102
##  7 rec2_boost1 Preprocesso… recipe  boos… roc_auc binary     0.961     5 0.00102
##  8 rec1_boost1 Preprocesso… recipe  boos… roc_auc binary     0.960     5 0.00120
##  9 rec2_boost1 Preprocesso… recipe  boos… roc_auc binary     0.960     5 0.00120
## 10 rec1_rf1    Preprocesso… recipe  rand… roc_auc binary     0.960     5 0.00278
## # … with 112 more rows
…
10.10.13 ROC-Curve

Eine ROC-Kurve berechnet Sensitivität und Spezifität aus den Vorhersagen,
bzw. aus dem Vergleich von Vorhersagen und wahrem Wert (d.h. der beobachtete Wert).

Ziehen wir also zuerst die Vorhersagen heraus:

fit_final %>% 
  collect_predictions()

## # A tibble: 998 × 7
##    id              .pred_yes .pred_no  .row .pred_class canceled_service .config
##    <chr>               <dbl>    <dbl> <int> <fct>       <fct>            <chr>  
##  1 train/test spl…     0.792  0.208       2 yes         yes              Prepro…
##  2 train/test spl…     0.773  0.227       6 yes         yes              Prepro…
##  3 train/test spl…     0.496  0.504      13 no          yes              Prepro…
##  4 train/test spl…     0.919  0.0809     15 yes         yes              Prepro…
##  5 train/test spl…     0.989  0.0111     18 yes         yes              Prepro…
##  6 train/test spl…     0.973  0.0267     21 yes         yes              Prepro…
##  7 train/test spl…     0.989  0.0111     23 yes         yes              Prepro…
##  8 train/test spl…     0.998  0.00154    26 yes         yes              Prepro…
##  9 train/test spl…     0.996  0.00388    27 yes         yes              Prepro…
## 10 train/test spl…     0.994  0.00642    41 yes         yes              Prepro…
## # … with 988 more rows
…
