Kapitel 10 Entscheidungsbäume | DataScience1
…
Bei \(n=32\) finden also 8 Autos ihren Weg ins Test-Sample und die übrigen 24 ins Train-Sample.
Bei der kleinen Zahl könnte man sich (berechtigterweise) fragen,
ob es Sinn macht, die spärlichen Daten noch mit einem Test-Sample weiter zu dezimieren.
Der Einwand ist nicht unberechtigt,
allerdings zieht der Verzicht auf ein Test-Sample andere Probleme, Overfitting namentlich, nach sich.

10.11.2 Kreuzvalidierung definieren

d_cv <- vfold_cv(d_train, strata = mpg, repeats = 5, v = 5) 
d_cv

## #  5-fold cross-validation repeated 5 times using stratification 
## # A tibble: 25 × 3
##    splits         id      id2  
##    <list>         <chr>   <chr>
##  1 <split [19/5]> Repeat1 Fold1
##  2 <split [19/5]> Repeat1 Fold2
##  3 <split [19/5]> Repeat1 Fold3
##  4 <split [19/5]> Repeat1 Fold4
##  5 <split [20/4]> Repeat1 Fold5
##  6 <split [19/5]> Repeat2 Fold1
##  7 <split [19/5]> Repeat2 Fold2
##  8 <split [19/5]> Repeat2 Fold3
##  9 <split [19/5]> Repeat2 Fold4
## 10 <split [20/4]> Repeat2 Fold5
## # … with 15 more rows
…
write_rds(trees_tuned, "objects/trees1.rds")

Bzw. so wieder aus der RDS-Datei zu importieren:

trees_tuned <- read_rds("objects/trees1.rds")

Hier oder hier kann man einiges zum Unterschied einer RDS-Datei vs. einer “normalen” R-Data-Datei nachlesen.
Wenn man möchte 😉.

trees_tuned

## # Tuning results
## # 5-fold cross-validation repeated 5 times using stratification 
## # A tibble: 25 × 5
##    splits         id      id2   .metrics           .notes           
##    <list>         <chr>   <chr> <list>             <list>           
##  1 <split [19/5]> Repeat1 Fold1 <tibble [128 × 7]> <tibble [32 × 3]>
##  2 <split [19/5]> Repeat1 Fold2 <tibble [128 × 7]> <tibble [32 × 3]>
##  3 <split [19/5]> Repeat1 Fold3 <tibble [128 × 7]> <tibble [32 × 3]>
##  4 <split [19/5]> Repeat1 Fold4 <tibble [128 × 7]> <tibble [32 × 3]>
##  5 <split [20/4]> Repeat1 Fold5 <tibble [128 × 7]> <tibble [32 × 3]>
##  6 <split [19/5]> Repeat2 Fold1 <tibble [128 × 7]> <tibble [32 × 3]>
##  7 <split [19/5]> Repeat2 Fold2 <tibble [128 × 7]> <tibble [32 × 3]>
##  8 <split [19/5]> Repeat2 Fold3 <tibble [128 × 7]> <tibble [32 × 3]>
##  9 <split [19/5]> Repeat2 Fold4 <tibble [128 × 7]> <tibble [32 × 3]>
## 10 <split [20/4]> Repeat2 Fold5 <tibble [128 × 7]> <tibble [32 × 3]>
## # … with 15 more rows
## 
## There were issues with some computations:
## 
##   - Warning(s) x320: 27 samples were requested but there were 19 rows in the data. 19 ...   - Warning(s) x80: 27 samples were requested but there were 19 rows in the data. 19 ...   - Warning(s) x320: 27 samples were requested but there were 19 rows in the data. 19 ...   - Warning(s) x80: 27 samples were requested but there were 19 rows in the data. 19 ...   - Warning(s) x4: 27 samples were requested but there were 19 rows in the data. 19 ...
## 
## Use `collect_notes(object)` for more information.

Die Warnhinweise kann man sich so ausgeben lassen:

collect_notes(trees_tuned)

## # A tibble: 804 × 5
##    id      id2   location                      type    note                     
##    <chr>   <chr> <chr>                         <chr>   <chr>                    
##  1 Repeat1 Fold1 preprocessor 1/1, model 33/64 warning 27 samples were requeste…
##  2 Repeat1 Fold1 preprocessor 1/1, model 34/64 warning 27 samples were requeste…
##  3 Repeat1 Fold1 preprocessor 1/1, model 35/64 warning 27 samples were requeste…
##  4 Repeat1 Fold1 preprocessor 1/1, model 36/64 warning 27 samples were requeste…
##  5 Repeat1 Fold1 preprocessor 1/1, model 37/64 warning 27 samples were requeste…
##  6 Repeat1 Fold1 preprocessor 1/1, model 38/64 warning 27 samples were requeste…
##  7 Repeat1 Fold1 preprocessor 1/1, model 39/64 warning 27 samples were requeste…
##  8 Repeat1 Fold1 preprocessor 1/1, model 40/64 warning 27 samples were requeste…
##  9 Repeat1 Fold1 preprocessor 1/1, model 41/64 warning 27 samples were requeste…
## 10 Repeat1 Fold1 preprocessor 1/1, model 42/64 warning 27 samples were requeste…
## # … with 794 more rows

Wie gesagt,
in diesem Fall war die Stichprobengröße sehr klein.

10.11.7 Modellgüte evaluieren

collect_metrics(trees_tuned)

## # A tibble: 128 × 9
##    cost_complexity tree_depth min_n .metric .estimator  mean     n std_err
##              <dbl>      <int> <int> <chr>   <chr>      <dbl> <int>   <dbl>
##  1    0.0000000001          1     2 rmse    standard   3.46     25  0.223 
##  2    0.0000000001          1     2 rsq     standard   0.666    21  0.0385
##  3    0.0000001             1     2 rmse    standard   3.46     25  0.223 
##  4    0.0000001             1     2 rsq     standard   0.666    21  0.0385
##  5    0.0001                1     2 rmse    standard   3.46     25  0.223 
##  6    0.0001                1     2 rsq     standard   0.666    21  0.0385
##  7    0.1                   1     2 rmse    standard   3.46     25  0.223 
##  8    0.1                   1     2 rsq     standard   0.666    21  0.0385
##  9    0.0000000001          5     2 rmse    standard   2.62     25  0.265 
## 10    0.0000000001          5     2 rsq     standard   0.863    25  0.0279
## # … with 118 more rows, and 1 more variable: .config <chr>
…
