Lösungen
…
tic()  # Stoppuhr an
fit1 <-
  fit_resamples(wf1, 
                rsmpling,
                metrics = metric_set(roc_auc, sens, spec, ppv)
  )
toc()  # Stoppuhr aus

## 16.078 sec elapsed

fit1

## # Resampling results
## # 10-fold cross-validation repeated 5 times using stratification 
## # A tibble: 50 × 5
##    splits            id      id2    .metrics
##    <list>            <chr>   <chr>  <list>  
##  1 <split [892/101]> Repeat1 Fold01 <tibble>
##  2 <split [893/100]> Repeat1 Fold02 <tibble>
##  3 <split [894/99]>  Repeat1 Fold03 <tibble>
##  4 <split [894/99]>  Repeat1 Fold04 <tibble>
##  5 <split [894/99]>  Repeat1 Fold05 <tibble>
##  6 <split [894/99]>  Repeat1 Fold06 <tibble>
##  7 <split [894/99]>  Repeat1 Fold07 <tibble>
##  8 <split [894/99]>  Repeat1 Fold08 <tibble>
##  9 <split [894/99]>  Repeat1 Fold09 <tibble>
## 10 <split [894/99]>  Repeat1 Fold10 <tibble>
## # … with 40 more rows, and 1 more variable:
## #   .notes <list>
…
  )
toc()  # Stoppuhr aus

## 14.537 sec elapsed

Dauert schon ein bisschen…

Dabei ist die logistische Regression sehr wenig
rechenintensiv.

fit2

## # Resampling results
## # 10-fold cross-validation repeated 5 times using stratification 
## # A tibble: 50 × 6
##    splits            id      id2    .metrics
##    <list>            <chr>   <chr>  <list>  
##  1 <split [892/101]> Repeat1 Fold01 <tibble>
##  2 <split [893/100]> Repeat1 Fold02 <tibble>
##  3 <split [894/99]>  Repeat1 Fold03 <tibble>
##  4 <split [894/99]>  Repeat1 Fold04 <tibble>
##  5 <split [894/99]>  Repeat1 Fold05 <tibble>
##  6 <split [894/99]>  Repeat1 Fold06 <tibble>
##  7 <split [894/99]>  Repeat1 Fold07 <tibble>
##  8 <split [894/99]>  Repeat1 Fold08 <tibble>
##  9 <split [894/99]>  Repeat1 Fold09 <tibble>
## 10 <split [894/99]>  Repeat1 Fold10 <tibble>
## # … with 40 more rows, and 2 more variables:
## #   .notes <list>, .predictions <list>
…
Vorhersagen im Train-Sample

Schauen wir uns die Vorhersagen im Train-Sample, zusammengefasst über
die alle Faltungen und Wiederholungen
(?collect_predictions).

collect_predictions(fit2, summarize = TRUE)

## # A tibble: 993 × 6
##     .row gender .config            .pred_male
##    <int> <fct>  <chr>                   <dbl>
##  1     1 female Preprocessor1_Mod…     0.589 
##  2     2 female Preprocessor1_Mod…     0.104 
##  3     3 female Preprocessor1_Mod…     0.0159
##  4     4 female Preprocessor1_Mod…     0.0253
##  5     5 female Preprocessor1_Mod…     0.166 
##  6     6 female Preprocessor1_Mod…     0.161 
##  7     7 female Preprocessor1_Mod…     0.0702
##  8     8 female Preprocessor1_Mod…     0.0683
##  9     9 female Preprocessor1_Mod…     0.161 
## 10    10 female Preprocessor1_Mod…     0.108 
## # … with 983 more rows, and 2 more
## #   variables: .pred_female <dbl>,
## #   .pred_class <fct>
ROC-Kurve im Train-Sample

roc_data <- 
  fit2 %>% 
  collect_predictions(summarize = TRUE) %>% 
  select(.pred_male) %>% 
  bind_cols(d_train) %>% 
  roc_curve(truth = gender, estimate = .pred_male)

## New names:
## • `...1` -> `...2`

roc_data

## # A tibble: 989 × 3
##     .threshold specificity sensitivity
##          <dbl>       <dbl>       <dbl>
##  1 -Inf            0             1    
##  2    0.000262     0             1    
##  3    0.000289     0             0.997
##  4    0.000304     0.00152       0.997
##  5    0.00130      0.00304       0.997
##  6    0.00200      0.00457       0.997
##  7    0.00217      0.00457       0.994
##  8    0.00382      0.00609       0.994
##  9    0.00403      0.00761       0.994
## 10    0.00405      0.00913       0.994
## # … with 979 more rows
…
collect_metrics(lm1_lastfit)

## # A tibble: 4 × 4
##   .metric .estimator .estimate .config       
##   <chr>   <chr>          <dbl> <chr>         
## 1 sens    binary         0.721 Preprocessor1…
## 2 spec    binary         0.937 Preprocessor1…
## 3 ppv     binary         0.851 Preprocessor1…
## 4 roc_auc binary         0.909 Preprocessor1…

collect_predictions(lm1_lastfit)

## # A tibble: 332 × 7
##    id           .pred_male .pred_female  .row
##    <chr>             <dbl>        <dbl> <int>
##  1 train/test …     0.0261        0.974     9
##  2 train/test …     0.0673        0.933    37
##  3 train/test …     0.344         0.656    45
##  4 train/test …     0.0261        0.974    47
##  5 train/test …     0.698         0.302    49
##  6 train/test …     0.106         0.894    51
##  7 train/test …     0.242         0.758    52
##  8 train/test …     0.698         0.302    55
##  9 train/test …     0.0421        0.958    56
## 10 train/test …     0.106         0.894    58
## # … with 322 more rows, and 3 more
## #   variables: .pred_class <fct>,
## #   gender <fct>, .config <chr>
…
